Assignment Week 4 Soultions/Examples
…
A pre- to post-training design may be analyzed by post-values only. This is “ineffective” as we need many more participants to show a difference that is true. The example below is an example of such analysis.

## Bad example, inefficient statistical test
temp <- read_csv("./data/strengthTests.csv") %>%
        filter(!is.na(load), 
               timepoint == "post", 
               exercise == "isom") %>%
        print()

## # A tibble: 33 x 6
##    subject timepoint exercise  load sex    group   
##    <chr>   <chr>     <chr>    <dbl> <chr>  <chr>   
##  1 FP11    post      isom      281  male   single  
##  2 FP12    post      isom      308  female single  
##  3 FP13    post      isom      294. male   multiple
##  4 FP14    post      isom      226  female single  
##  5 FP15    post      isom      298. male   single  
##  6 FP16    post      isom      248  female single  
##  7 FP17    post      isom      336. male   multiple
##  8 FP19    post      isom      266  male   single  
##  9 FP2     post      isom      216. female multiple
## 10 FP20    post      isom      146. female single  
## # ... with 23 more rows
…
library(lme4); library(broom)

# Alternative 1 (Two pre- time-points)
raw.data <- read_csv("./data/strengthTests.csv") %>%
        filter(!is.na(load), 
               exercise == "isom") %>%
        mutate(timepoint = if_else(timepoint == "session1", 
                                   "pre", timepoint)) %>%
        mutate(timepoint = factor(timepoint, 
                                  levels = c("pre", "post"))) %>%
        
        print()

## # A tibble: 101 x 6
##    subject timepoint exercise  load sex    group   
##    <chr>   <fct>     <chr>    <dbl> <chr>  <chr>   
##  1 FP11    pre       isom      256. male   single  
##  2 FP11    pre       isom      252  male   single  
##  3 FP11    post      isom      281  male   single  
##  4 FP12    pre       isom      246. female single  
##  5 FP12    pre       isom      290. female single  
##  6 FP12    post      isom      308  female single  
##  7 FP13    pre       isom      204  male   multiple
##  8 FP13    pre       isom      210. male   multiple
##  9 FP13    post      isom      294. male   multiple
## 10 FP14    pre       isom      197  female single  
## # ... with 91 more rows

# Alternative 2 (combine pre and session1 into one time-point)
raw.data <- read_csv("./data/strengthTests.csv") %>%
        filter(!is.na(load), 
               exercise == "isom") %>%
        mutate(timepoint = factor(timepoint, 
                                  levels = c("pre",
                                             "session1", 
                                             "post"))) %>%
        
        print()

## # A tibble: 101 x 6
##    subject timepoint exercise  load sex    group   
##    <chr>   <fct>     <chr>    <dbl> <chr>  <chr>   
##  1 FP11    pre       isom      256. male   single  
##  2 FP11    session1  isom      252  male   single  
##  3 FP11    post      isom      281  male   single  
##  4 FP12    pre       isom      246. female single  
##  5 FP12    session1  isom      290. female single  
##  6 FP12    post      isom      308  female single  
##  7 FP13    pre       isom      204  male   multiple
##  8 FP13    session1  isom      210. male   multiple
##  9 FP13    post      isom      294. male   multiple
## 10 FP14    pre       isom      197  female single  
## # ... with 91 more rows
…
